[
  {
    "name": "New Year´s Day",
    "description": "",
    "date": "2017/01/01",
    "country": "EST"
  },
  {
    "name": "Independence Day",
    "description": "Anniversary of the Republic of Estonia",
    "date": "2017/02/24",
    "country": "EST"
  },
  {
    "name": "Good Friday",
    "description": "",
    "date": "2017/04/14",
    "country": "EST"
  },
  {
    "name": "Easter Sunday",
    "description": "",
    "date": "2017/04/16",
    "country": "EST"
  },
  {
    "name": "Spring Day",
    "description": "",
    "date": "2017/05/01",
    "country": "EST"
  },
  {
    "name": "Pentecost",
    "description": "",
    "date": "2017/06/04",
    "country": "EST"
  },
  {
    "name": "Victory Day",
    "description": "",
    "date": "2017/06/23",
    "country": "EST"
  },
  {
    "name": "Midsummer Day",
    "description": "",
    "date": "2017/06/24",
    "country": "EST"
  },
  {
    "name": "Day of Restoration of Independence",
    "description": "",
    "date": "2017/08/20",
    "country": "EST"
  },
  {
    "name": "Christmas Eve",
    "description": "",
    "date": "2017/12/24",
    "country": "EST"
  },
  {
    "name": "Christmas",
    "description": "",
    "date": "2017/12/25",
    "country": "EST"
  },
  {
    "name": "Boxing Day",
    "description": "",
    "date": "2017/12/26",
    "country": "EST"
  },
  {
    "name": "New Year´s Day",
    "description": "",
    "date": "2018/01/01",
    "country": "EST"
  },
  {
    "name": "Independence Day",
    "description": "Anniversary of the Republic of Estonia",
    "date": "2018/02/24",
    "country": "EST"
  }
]
